…
    ## [1] 51

A: There are 51 unique states in this dataset, which equals to the number of states in the United States.

1.  What state is observed the most?

``` r
count(brfss_data, locationabbr, sort = TRUE)
```

    ## # A tibble: 51 x 2
    ##    locationabbr     n
    ##    <chr>        <int>
    ##  1 NJ             146
    ##  2 FL             122
    ##  3 NC             115
    ##  4 WA              97
    ##  5 MD              90
    ##  6 MA              79
    ##  7 TX              71
    ##  8 NY              65
    ##  9 SC              63
    ## 10 CO              59
    ## # ... with 41 more rows
…
